<?xml version="1.0" encoding="utf-8"?>
<!-- Generator: Adobe Illustrator 25.4.1, SVG Export Plug-In . SVG Version: 6.00 Build 0)  -->
<svg version="1.1" id="Warstwa_1" xmlns="http://www.w3.org/2000/svg" xmlns:xlink="http://www.w3.org/1999/xlink" x="0px" y="0px"
	 viewBox="0 0 3000 882.2" style="enable-background:new 0 0 3000 882.2;" xml:space="preserve">
<g transform="scale(7.874015748031497) translate(10, 10)">
	<g id="SvgjsG2508" transform="matrix(1.411290322580645,0,0,1.411290322580645,-1.411290322580645,10.588709677419356)">
		<g>
			<path d="M55.9,29.9v-10h-6.5c-0.2-1-0.5-2-0.8-2.9l5.6-3.3l-5-8.7l-5.6,3.3c-0.7-0.8-1.4-1.5-2.1-2.1l3.3-5.6l-8.7-5l-3.3,5.6
				c-0.9-0.3-1.9-0.6-2.9-0.8v-6.5h-10v6.5c-1,0.2-2,0.5-2.9,0.8l-3.3-5.6l-8.7,5l3.3,5.6C7.9,6.5,7.6,6.9,7.2,7.3L6.5,8l35.4,35.4
				l0.7-0.7c0.4-0.4,0.7-0.7,1.1-1.1l5.6,3.3l5-8.7l-5.6-3.3c0.3-1,0.6-1.9,0.8-2.9H55.9z M15.7,14.4c2.5-2.2,5.8-3.4,9.2-3.4
				c7.7,0,14,6.3,14,14c0,3.4-1.2,6.7-3.4,9.2L15.7,14.4z M51.5,36.8l-3,5.2l-5.4-3.1l-0.5,0.7c-0.3,0.3-0.5,0.6-0.8,0.9l-5-5
				c2.6-2.9,4-6.7,4-10.6c0-8.8-7.2-16-16-16c-3.9,0-7.7,1.5-10.6,4l-5-5c0.3-0.3,0.6-0.5,0.9-0.8l0.6-0.5L7.8,1.3l5.2-3l3.1,5.3
				l0.8-0.3c1.3-0.5,2.8-0.9,4.2-1.1l0.8-0.1v-6.2h6v6.2l0.8,0.1c1.4,0.2,2.8,0.6,4.2,1.1l0.8,0.3l3.1-5.3l5.2,3l-3.1,5.4l0.7,0.5
				c1.1,0.9,2.1,2,3.1,3.1l0.5,0.6l5.4-3.1l3,5.2l-5.3,3.1l0.3,0.8c0.5,1.3,0.9,2.7,1.1,4.2l0.1,0.8h6.2v6h-6.2l-0.1,0.8
				c-0.2,1.4-0.6,2.8-1.1,4.2l-0.3,0.8L51.5,36.8z"/>
			<path d="M0.8,5.4L0.1,6.3c-4.1,5.4-6.2,11.8-6.2,18.6c0,7.4,2.9,14.7,8.3,20.7l0.7,0.8l19.5-19.5L0.8,5.4z M-4.1,24.9
				C-4.1,19-2.3,13.3,1,8.5l18.5,18.5L3,43.4C-1.6,38-4.1,31.5-4.1,24.9z"/>
			<path d="M5.4,49l0.9,0.7c5.4,4.1,11.8,6.2,18.6,6.2s13.2-2.1,18.6-6.2l0.9-0.7L24.9,29.5L5.4,49z M33.9,48.9v-7.6l2,2v8.4
				c-0.7,0.3-1.3,0.5-2,0.7v-1.6h-2v2.1c-0.7,0.2-1.3,0.3-2,0.4V37.3l2,2v9.6H33.9z M27.9,53.7c-0.7,0.1-1.3,0.1-2,0.1V33.3l2,2
				V53.7z M19.9,41.9v11.6c-0.7-0.1-1.3-0.3-2-0.4V39.3l2-2v2.6h2v-4.6l2-2v20.5c-0.7,0-1.3-0.1-2-0.1V41.9H19.9z M15.9,52.5
				c-0.7-0.2-1.3-0.5-2-0.7v-8.4l2-2V52.5z M11.9,45.3v5.5c-1.2-0.6-2.4-1.3-3.5-2L11.9,45.3z M37.9,50.8v-5.5l3.5,3.5
				C40.3,49.6,39.1,50.2,37.9,50.8z"/>
		</g>
	</g>
	<g id="SvgjsG2509" transform="matrix(5.116959140427486,0,0,5.116959140427486,106.97660815666478,-29.883034841013757)">
		<path d="M-1.8,18v-2c0.2,0,0.5,0,0.8,0c0.7,0,1.3-0.3,1.3-1.3V4h2.2v10.5c0,2.8-1.5,3.5-3.2,3.5C-1.1,18.1-1.4,18.1-1.8,18z
			 M6,7.3v7.6c0,1,0.4,1.4,1.1,1.4s1.1-0.4,1.1-1.4V7.3c0-1-0.4-1.4-1.1-1.4S6,6.3,6,7.3L6,7.3z M3.8,14.7V7.4
			c0-2.2,1.2-3.5,3.3-3.5s3.3,1.3,3.3,3.5v7.3c0,2.2-1.2,3.5-3.3,3.5S3.8,16.9,3.8,14.7z M15.2,4c2.3,0,3.3,1.1,3.3,3.2v0.5
			c0,1.4-0.4,2.3-1.4,2.8v0c1.2,0.5,1.6,1.5,1.6,3v1.1c0,2.2-1.1,3.3-3.3,3.3h-3.5V4H15.2z M15.1,11.7h-1V16h1.3
			c0.7,0,1.1-0.3,1.1-1.4v-1.2C16.5,12.1,16.1,11.7,15.1,11.7L15.1,11.7z M15.1,6h-1.1v3.7h0.9c0.8,0,1.3-0.4,1.3-1.5V7.5
			C16.3,6.5,15.9,6,15.1,6L15.1,6z M24.7,18L22,7.9h0V18h-2V4h2.8l2.2,8.4h0V4h2v14H24.7L24.7,18z M30.7,6v3.9h3v2h-3V16h3.8v2h-6V4
			h6v2H30.7z M35.6,7.4c0-2.2,1.1-3.5,3.2-3.5s3.2,1.3,3.2,3.5v0.4H40V7.3c0-1-0.4-1.4-1.1-1.4s-1.1,0.4-1.1,1.4c0,1,0.4,1.8,1.9,3
			c1.8,1.6,2.4,2.8,2.4,4.4c0,2.2-1.1,3.5-3.3,3.5s-3.3-1.3-3.3-3.5v-0.9h2.1v1c0,1,0.4,1.4,1.1,1.4s1.1-0.4,1.1-1.4
			c0-1-0.4-1.8-1.9-3C36.2,10.2,35.6,9,35.6,7.4L35.6,7.4z M42.7,6V4h6.8v2h-2.3v12H45V6H42.7z"/>
	</g>
	<g id="SvgjsG2510" transform="matrix(2.024922237552943,0,0,2.024922237552943,106.38006278929254,71.1744567203867)">
		<path d="M-4.1,15.1v-14h2.2v12h3.6v2C1.7,15.1-4.1,15.1-4.1,15.1z M7.5,1.1l2.2,14H7.5l-0.4-2.5H4.5l-0.4,2.5h-2l2.2-14H7.5z
			 M5.8,3.5l-1,7.1h2.1L5.8,3.5L5.8,3.5z M15.5,15.1L12.8,4.9h0v10.1h-2v-14h2.8l2.2,8.4h0V1.1h2v14H15.5z M19.3,15.1v-14h3.5
			c2.2,0,3.3,1.2,3.3,3.5v7.1c0,2.2-1.1,3.5-3.3,3.5H19.3z M22.8,3.1h-1.2v10h1.2c0.7,0,1.1-0.4,1.1-1.4V4.4
			C23.9,3.4,23.5,3.1,22.8,3.1L22.8,3.1z M32.6,15.1v-4.6l-2.8-9.4h2.3l1.7,6.4h0l1.7-6.4h2.1l-2.8,9.4v4.6H32.6z M40.2,4.3v7.6
			c0,1,0.4,1.4,1.1,1.4s1.1-0.4,1.1-1.4V4.3c0-1-0.4-1.4-1.1-1.4S40.2,3.3,40.2,4.3L40.2,4.3z M38,11.7V4.4c0-2.2,1.2-3.5,3.3-3.5
			s3.3,1.3,3.3,3.5v7.3c0,2.2-1.2,3.5-3.3,3.5S38,13.9,38,11.7z M46,1.1h2.2v10.8c0,1,0.4,1.4,1.1,1.4s1.1-0.4,1.1-1.4V1.1h2.1v10.7
			c0,2.2-1.1,3.5-3.3,3.5S46,14,46,11.7V1.1z M60.9,15.1h-2.2c-0.1-0.4-0.2-0.6-0.2-1.7v-2.2c0-1.3-0.4-1.8-1.4-1.8h-0.8v5.7h-2.2
			v-14h3.3c2.3,0,3.3,1.1,3.3,3.2v1.1c0,1.4-0.5,2.4-1.4,2.8v0c1.1,0.5,1.5,1.5,1.5,3v2.2C60.7,14,60.7,14.5,60.9,15.1L60.9,15.1z
			 M57.3,3.1h-1.1v4.3h0.9c0.8,0,1.3-0.4,1.3-1.5V4.5C58.5,3.5,58.1,3.1,57.3,3.1z M65.2,15.1v-14h3.5c2.2,0,3.3,1.2,3.3,3.5v7.1
			c0,2.2-1.1,3.5-3.3,3.5H65.2z M68.7,3.1h-1.2v10h1.2c0.7,0,1.1-0.4,1.1-1.4V4.4C69.8,3.4,69.4,3.1,68.7,3.1L68.7,3.1z M80.2,15.1
			H78c-0.1-0.4-0.2-0.6-0.2-1.7v-2.2c0-1.3-0.4-1.8-1.4-1.8h-0.8v5.7h-2.2v-14h3.3C79,1.1,80,2.1,80,4.3v1.1c0,1.4-0.5,2.4-1.4,2.8
			v0c1.1,0.5,1.5,1.5,1.5,3v2.2C80,14,80,14.5,80.2,15.1z M76.6,3.1h-1.1v4.3h0.9c0.8,0,1.3-0.4,1.3-1.5V4.5
			C77.8,3.5,77.4,3.1,76.6,3.1z M83.6,3.1V7h3v2h-3v4.1h3.8v2h-6v-14h6v2H83.6z M93.7,1.1l2.2,14h-2.2l-0.4-2.5h-2.7l-0.4,2.5h-2
			l2.2-14H93.7L93.7,1.1z M91.9,3.5l-1,7.1H93L91.9,3.5L91.9,3.5z M100,1.1l1.6,9.9h0l1.5-9.9h3.1v14h-2.1V5h0l-1.5,10h-2.1
			l-1.6-9.9h0v9.9h-1.9v-14H100L100,1.1z M110.2,15.1v-2c0.2,0,0.5,0,0.8,0c0.7,0,1.3-0.3,1.3-1.3V1.1h2.2v10.5
			c0,2.8-1.5,3.5-3.2,3.5C110.9,15.1,110.6,15.1,110.2,15.1z M118,4.3v7.6c0,1,0.4,1.4,1.1,1.4s1.1-0.4,1.1-1.4V4.3
			c0-1-0.4-1.4-1.1-1.4S118,3.3,118,4.3L118,4.3z M115.8,11.7V4.4c0-2.2,1.2-3.5,3.3-3.5s3.3,1.3,3.3,3.5v7.3c0,2.2-1.2,3.5-3.3,3.5
			S115.8,13.9,115.8,11.7z M127.2,1.1c2.3,0,3.3,1.1,3.3,3.2v0.5c0,1.4-0.4,2.3-1.4,2.8v0c1.2,0.5,1.6,1.5,1.6,3v1.1
			c0,2.2-1.1,3.3-3.3,3.3h-3.5v-14H127.2z M127.1,8.8h-1v4.3h1.3c0.7,0,1.1-0.3,1.1-1.4v-1.2C128.5,9.2,128.1,8.8,127.1,8.8
			L127.1,8.8z M127.1,3.1h-1.1v3.7h0.9c0.8,0,1.3-0.4,1.3-1.5V4.5C128.3,3.5,127.9,3.1,127.1,3.1L127.1,3.1z"/>
	</g>
</g>
</svg>
